{
  "STAGING": "DEVELOPMENT",
  "API_URL": "http://139.99.60.117:1580/v1",
  "ONESIGNAL_ID": "db47dc2b-c221-4de2-b9c0-9c2799f27613",
  "ONESIGNAL_KEY": "YmQ1YTU1YTUtZjA0NS00MmViLWEzN2ItMDY2MjU1ODgxOGRh",
  "ONESIGNAL_CHANNELID": "58a98443-bf10-4f94-8779-3d54a8ff3b2f",
  "X_API_KEY": "4d3bb5122cbfbf36f8b6f4bf9e791542"
}
