{
  "project_info": {
    "project_number": "209531448848",
    "firebase_url": "https://iki-aku-v2-dev.firebaseio.com",
    "project_id": "iki-aku-v2-dev",
    "storage_bucket": "iki-aku-v2-dev.appspot.com"
  },
  "client": [
    {
      "client_info": {
        "mobilesdk_app_id": "1:209531448848:android:c99f4f77d177d74db8a495",
        "android_client_info": {
          "package_name": "id.iki.remit.aku.hk"
        }
      },
      "oauth_client": [
        {
          "client_id": "209531448848-luhor32pgiiukgsr3l9ks014fct6m20r.apps.googleusercontent.com",
          "client_type": 3
        }
      ],
      "api_key": [
        {
          "current_key": "AIzaSyCpLRenARVTvxRN_p3jnljdrLck0fJP8NU"
        }
      ],
      "services": {
        "appinvite_service": {
          "other_platform_oauth_client": [
            {
              "client_id": "209531448848-luhor32pgiiukgsr3l9ks014fct6m20r.apps.googleusercontent.com",
              "client_type": 3
            }
          ]
        }
      }
    }
  ],
  "configuration_version": "1"
}